Session 1
…
---

# Looking at our data

The _class_ of this `dat` object is a `data.frame`. `data.frame`s are R's representation of tabular data. `dat` is also a `tbl_df` ("tibble"), which is the tidyverse's version of a `data.frame` that is a little bit more stringent (i.e. safe) than base R's version, and it has a prettier `print()` method:

```r
print(dat)
```

```
## # A tibble: 100 x 9
##       X1 Coded_ID Cohort Intervention Female Final_grade Final_score
##    <dbl>    <dbl> <chr>         <dbl>  <dbl>       <dbl>       <dbl>
##  1     1        1 A                -1      1         3.7        83.1
##  2     2        2 A                 1      0         2.7        70.8
##  3     3        3 A                 1      0         2.3        69.2
##  4     4        6 A                -1      0         3.7        84.0
##  5     5        9 A                -1      0         4          88.2
##  6     6       11 A                -1      0         4          89.7
##  7     7       14 A                -1      0         3.3        80.2
##  8     8       16 A                -1      1         0          50.2
##  9     9       17 A                 1      0         1.7        53.4
## 10    10       18 A                 1      0         3.7        82.7
## # … with 90 more rows, and 2 more variables: Baseline_math_score <dbl>,
## #   Baseline_stereotype_endorsement <dbl>
```
…
