Session 2
…
# Intro to ggplot2

Let's double-check that we have `dep_delay` and `precip`...

.font10[

```r
jfk_flights_weather %>% 
  filter(precip > 0) %>% 
  select(dep_delay, precip)
```

```
## # A tibble: 7,266 x 2
##    dep_delay precip
##        <dbl>  <dbl>
##  1        12   0.02
##  2        20   0.02
##  3        -8   0.03
##  4        -3   0.03
##  5        -2   0.03
##  6         0   0.03
##  7        -4   0.03
##  8         3   0.03
##  9         4   0.03
## 10         9   0.03
## # … with 7,256 more rows
```
…
